<?xml version="1.0" encoding="UTF-8" standalone="no"?>
<!-- Created with Inkscape (http://www.inkscape.org/) -->

<svg
   width="210mm"
   height="297mm"
   viewBox="0 0 210 297"
   version="1.1"
   id="svg5"
   inkscape:version="1.1 (c68e22c387, 2021-05-23)"
   sodipodi:docname="falcon_streaminfo_idea.svg"
   xmlns:inkscape="http://www.inkscape.org/namespaces/inkscape"
   xmlns:sodipodi="http://sodipodi.sourceforge.net/DTD/sodipodi-0.dtd"
   xmlns="http://www.w3.org/2000/svg"
   xmlns:svg="http://www.w3.org/2000/svg">
  <sodipodi:namedview
     id="namedview7"
     pagecolor="#ffffff"
     bordercolor="#666666"
     borderopacity="1.0"
     inkscape:pageshadow="2"
     inkscape:pageopacity="1"
     inkscape:pagecheckerboard="0"
     inkscape:document-units="mm"
     showgrid="false"
     inkscape:snap-object-midpoints="true"
     inkscape:snap-center="true"
     inkscape:object-paths="true"
     inkscape:snap-intersection-paths="true"
     inkscape:snap-smooth-nodes="true"
     inkscape:snap-global="true"
     inkscape:zoom="0.69664703"
     inkscape:cx="555.51805"
     inkscape:cy="281.34764"
     inkscape:window-width="1920"
     inkscape:window-height="986"
     inkscape:window-x="-11"
     inkscape:window-y="-11"
     inkscape:window-maximized="1"
     inkscape:current-layer="layer1" />
  <defs
     id="defs2">
    <marker
       style="overflow:visible"
       id="TriangleOutL"
       refX="0.0"
       refY="0.0"
       orient="auto"
       inkscape:stockid="TriangleOutL"
       inkscape:isstock="true">
      <path
         transform="scale(0.8)"
         style="fill-rule:evenodd;fill:context-stroke;stroke:context-stroke;stroke-width:1.0pt"
         d="M 5.77,0.0 L -2.88,5.0 L -2.88,-5.0 L 5.77,0.0 z "
         id="path32619" />
    </marker>
  </defs>
  <g
     inkscape:label="Layer 1"
     inkscape:groupmode="layer"
     id="layer1">
    <circle
       style="fill:#a6a6a6;fill-opacity:1;stroke:#000000;stroke-width:0.15;stroke-linecap:round"
       id="path1022-3"
       cx="47.081898"
       cy="51.261429"
       r="1.6113354"
       inkscape:export-filename="C:\Users\klooster\OneDrive - imec\Desktop\streaminfograph.png"
       inkscape:export-xdpi="300.07941"
       inkscape:export-ydpi="300.07941" />
    <circle
       style="fill:#a6a6a6;fill-opacity:1;stroke:#000000;stroke-width:0.15;stroke-linecap:round"
       id="path1022-0-9"
       cx="41.790226"
       cy="51.261429"
       r="1.6113354"
       inkscape:export-filename="C:\Users\klooster\OneDrive - imec\Desktop\streaminfograph.png"
       inkscape:export-xdpi="300.07941"
       inkscape:export-ydpi="300.07941" />
    <circle
       style="fill:#a6a6a6;fill-opacity:1;stroke:#000000;stroke-width:0.15;stroke-linecap:round"
       id="path1022-0-1"
       cx="34.656078"
       cy="91.312729"
       r="1.6113354"
       inkscape:export-filename="C:\Users\klooster\OneDrive - imec\Desktop\streaminfograph.png"
       inkscape:export-xdpi="300.07941"
       inkscape:export-ydpi="300.07941" />
    <circle
       style="fill:#a6a6a6;fill-opacity:1;stroke:#000000;stroke-width:0.15;stroke-linecap:round"
       id="path1022-3-1"
       cx="54.2514"
       cy="91.111313"
       r="1.6113354"
       inkscape:export-filename="C:\Users\klooster\OneDrive - imec\Desktop\streaminfograph.png"
       inkscape:export-xdpi="300.07941"
       inkscape:export-ydpi="300.07941" />
    <circle
       style="fill:#a6a6a6;fill-opacity:1;stroke:#000000;stroke-width:0.15;stroke-linecap:round"
       id="path1022-3-3-1"
       cx="47.0247"
       cy="71.971222"
       r="1.6113354"
       inkscape:export-filename="C:\Users\klooster\OneDrive - imec\Desktop\streaminfograph.png"
       inkscape:export-xdpi="300.07941"
       inkscape:export-ydpi="300.07941" />
    <circle
       style="fill:#a6a6a6;fill-opacity:1;stroke:#000000;stroke-width:0.15;stroke-linecap:round"
       id="path1022-0-9-6-6"
       cx="41.733028"
       cy="71.971222"
       r="1.6113354"
       inkscape:export-filename="C:\Users\klooster\OneDrive - imec\Desktop\streaminfograph.png"
       inkscape:export-xdpi="300.07941"
       inkscape:export-ydpi="300.07941" />
    <circle
       style="fill:#a6a6a6;fill-opacity:1;stroke:#000000;stroke-width:0.15;stroke-linecap:round"
       id="path1022-0-1-3"
       cx="82.5103"
       cy="91.312729"
       r="1.6113354"
       inkscape:export-filename="C:\Users\klooster\OneDrive - imec\Desktop\streaminfograph.png"
       inkscape:export-xdpi="300.07941"
       inkscape:export-ydpi="300.07941" />
    <circle
       style="fill:#a6a6a6;fill-opacity:1;stroke:#000000;stroke-width:0.15;stroke-linecap:round"
       id="path1022-3-1-7"
       cx="102.10561"
       cy="91.111313"
       r="1.6113354"
       inkscape:export-filename="C:\Users\klooster\OneDrive - imec\Desktop\streaminfograph.png"
       inkscape:export-xdpi="300.07941"
       inkscape:export-ydpi="300.07941" />
    <circle
       style="fill:#a6a6a6;fill-opacity:1;stroke:#000000;stroke-width:0.15;stroke-linecap:round"
       id="path1022-3-3-1-2"
       cx="94.878929"
       cy="71.971222"
       r="1.6113354"
       inkscape:export-filename="C:\Users\klooster\OneDrive - imec\Desktop\streaminfograph.png"
       inkscape:export-xdpi="300.07941"
       inkscape:export-ydpi="300.07941" />
    <circle
       style="fill:#a6a6a6;fill-opacity:1;stroke:#000000;stroke-width:0.15;stroke-linecap:round"
       id="path1022-0-9-6-6-9"
       cx="89.587257"
       cy="71.971222"
       r="1.6113354"
       inkscape:export-filename="C:\Users\klooster\OneDrive - imec\Desktop\streaminfograph.png"
       inkscape:export-xdpi="300.07941"
       inkscape:export-ydpi="300.07941" />
    <circle
       style="fill:#a6a6a6;fill-opacity:1;stroke:#000000;stroke-width:0.15;stroke-linecap:round"
       id="path1022-3-1-8"
       cx="44.436062"
       cy="132.88881"
       r="1.6113354"
       inkscape:export-filename="C:\Users\klooster\OneDrive - imec\Desktop\streaminfograph.png"
       inkscape:export-xdpi="300.07941"
       inkscape:export-ydpi="300.07941" />
    <circle
       style="fill:#a6a6a6;fill-opacity:1;stroke:#000000;stroke-width:0.15;stroke-linecap:round"
       id="path1022-3-3-1-5"
       cx="47.0247"
       cy="113.74872"
       r="1.6113354"
       inkscape:export-filename="C:\Users\klooster\OneDrive - imec\Desktop\streaminfograph.png"
       inkscape:export-xdpi="300.07941"
       inkscape:export-ydpi="300.07941" />
    <circle
       style="fill:#a6a6a6;fill-opacity:1;stroke:#000000;stroke-width:0.15;stroke-linecap:round"
       id="path1022-0-9-6-6-0"
       cx="41.733028"
       cy="113.74872"
       r="1.6113354"
       inkscape:export-filename="C:\Users\klooster\OneDrive - imec\Desktop\streaminfograph.png"
       inkscape:export-xdpi="300.07941"
       inkscape:export-ydpi="300.07941" />
    <circle
       style="fill:#a6a6a6;fill-opacity:1;stroke:#000000;stroke-width:0.15;stroke-linecap:round"
       id="path1022-0-3-4-12-6"
       cx="44.436062"
       cy="154.58824"
       r="1.6113354"
       inkscape:export-filename="C:\Users\klooster\OneDrive - imec\Desktop\streaminfograph.png"
       inkscape:export-xdpi="300.07941"
       inkscape:export-ydpi="300.07941" />
    <circle
       style="fill:#a6a6a6;fill-opacity:1;stroke:#000000;stroke-width:0.15;stroke-linecap:round"
       id="path1022-3-3-1-5-9"
       cx="39.14439"
       cy="154.38683"
       r="1.6113354"
       inkscape:export-filename="C:\Users\klooster\OneDrive - imec\Desktop\streaminfograph.png"
       inkscape:export-xdpi="300.07941"
       inkscape:export-ydpi="300.07941" />
    <circle
       style="fill:#a6a6a6;fill-opacity:1;stroke:#000000;stroke-width:0.15;stroke-linecap:round"
       id="path1022-0-9-6-6-0-6"
       cx="49.727734"
       cy="154.38683"
       r="1.6113354"
       inkscape:export-filename="C:\Users\klooster\OneDrive - imec\Desktop\streaminfograph.png"
       inkscape:export-xdpi="300.07941"
       inkscape:export-ydpi="300.07941" />
    <circle
       style="fill:#a6a6a6;fill-opacity:1;stroke:#000000;stroke-width:0.15;stroke-linecap:round"
       id="path1022-3-1-7-2"
       cx="94.936127"
       cy="132.88881"
       r="1.6113354"
       inkscape:export-filename="C:\Users\klooster\OneDrive - imec\Desktop\streaminfograph.png"
       inkscape:export-xdpi="300.07941"
       inkscape:export-ydpi="300.07941" />
    <circle
       style="fill:#a6a6a6;fill-opacity:1;stroke:#000000;stroke-width:0.15;stroke-linecap:round"
       id="path1022-0-9-5-4-2"
       cx="89.644455"
       cy="132.88881"
       r="1.6113354"
       inkscape:export-filename="C:\Users\klooster\OneDrive - imec\Desktop\streaminfograph.png"
       inkscape:export-xdpi="300.07941"
       inkscape:export-ydpi="300.07941" />
    <circle
       style="fill:#a6a6a6;fill-opacity:1;stroke:#000000;stroke-width:0.15;stroke-linecap:round"
       id="path1022-3-3-1-2-9"
       cx="94.878929"
       cy="113.74872"
       r="1.6113354"
       inkscape:export-filename="C:\Users\klooster\OneDrive - imec\Desktop\streaminfograph.png"
       inkscape:export-xdpi="300.07941"
       inkscape:export-ydpi="300.07941" />
    <circle
       style="fill:#a6a6a6;fill-opacity:1;stroke:#000000;stroke-width:0.15;stroke-linecap:round"
       id="path1022-0-9-6-6-9-4"
       cx="89.587257"
       cy="113.74872"
       r="1.6113354"
       inkscape:export-filename="C:\Users\klooster\OneDrive - imec\Desktop\streaminfograph.png"
       inkscape:export-xdpi="300.07941"
       inkscape:export-ydpi="300.07941" />
    <g
       id="g9886"
       style="stroke:#000000;stroke-opacity:1;stroke-width:0.5;stroke-miterlimit:4;stroke-dasharray:none"
       inkscape:export-filename="C:\Users\klooster\OneDrive - imec\Desktop\streaminfograph.png"
       inkscape:export-xdpi="300.07941"
       inkscape:export-ydpi="300.07941">
      <path
         style="fill:none;fill-rule:evenodd;stroke:#000000;stroke-width:0.5;stroke-linecap:butt;stroke-linejoin:miter;stroke-miterlimit:4;stroke-dasharray:none;stroke-opacity:1"
         d="m 41.790226,52.872764 v 16.452625 c 0,0.353542 -0.002,0.707085 -0.0056,1.035378"
         id="path4728"
         inkscape:connector-type="orthogonal"
         inkscape:connector-curvature="10"
         inkscape:connection-start="#path1022-0-9"
         inkscape:connection-end="#path1022-0-9-6-6" />
      <path
         style="fill:none;fill-rule:evenodd;stroke:#000000;stroke-width:0.5;stroke-linecap:butt;stroke-linejoin:miter;stroke-miterlimit:4;stroke-dasharray:none;stroke-opacity:1"
         d="m 47.081898,52.872764 v 16.452625 c 0,0.353542 -0.002,0.707085 -0.0056,1.035378"
         id="path4730"
         inkscape:connector-type="orthogonal"
         inkscape:connector-curvature="10"
         inkscape:connection-start="#path1022-3"
         inkscape:connection-end="#path1022-3-3-1" />
      <path
         style="fill:none;stroke:#000000;stroke-width:0.5;stroke-linecap:butt;stroke-linejoin:miter;stroke-opacity:1;stroke-miterlimit:4;stroke-dasharray:none"
         d="m 34.656077,92.924063 7.076951,19.213317"
         id="path7318" />
      <path
         style="fill:none;stroke:#000000;stroke-width:0.5;stroke-linecap:butt;stroke-linejoin:miter;stroke-opacity:1;stroke-miterlimit:4;stroke-dasharray:none"
         d="M 82.510298,92.924063 47.0247,112.13738"
         id="path7320" />
      <path
         style="fill:none;stroke:#000000;stroke-width:0.5;stroke-linecap:butt;stroke-linejoin:miter;stroke-opacity:1;stroke-miterlimit:4;stroke-dasharray:none"
         d="M 54.251399,92.722646 89.587257,112.13738"
         id="path7322" />
      <path
         style="fill:none;stroke:#000000;stroke-width:0.5;stroke-linecap:butt;stroke-linejoin:miter;stroke-opacity:1;stroke-miterlimit:4;stroke-dasharray:none"
         d="M 102.10561,92.722646 94.878929,112.13738"
         id="path7324" />
      <path
         style="fill:none;stroke:#000000;stroke-width:0.5;stroke-linecap:butt;stroke-linejoin:miter;stroke-opacity:1;stroke-miterlimit:4;stroke-dasharray:none"
         d="m 47.081897,52.872764 c 1e-6,10.314632 47.721146,0.169271 47.797032,17.487122"
         id="path7529"
         sodipodi:nodetypes="cc" />
      <path
         style="fill:none;stroke:#000000;stroke-width:0.5;stroke-linecap:butt;stroke-linejoin:miter;stroke-opacity:1;stroke-miterlimit:4;stroke-dasharray:none"
         d="m 41.790225,52.872764 c -0.0572,19.098458 47.753555,6.296595 47.797032,17.487122"
         id="path7531"
         sodipodi:nodetypes="cc" />
      <path
         style="fill:none;stroke:#000000;stroke-width:0.5;stroke-linecap:butt;stroke-linejoin:miter;stroke-opacity:1;stroke-miterlimit:4;stroke-dasharray:none"
         d="m 44.436061,134.50014 -5.291672,18.27535"
         id="path7654" />
      <path
         style="fill:none;stroke:#000000;stroke-width:0.5;stroke-linecap:butt;stroke-linejoin:miter;stroke-opacity:1;stroke-miterlimit:4;stroke-dasharray:none"
         d="m 89.644454,134.50014 c -0.01847,12.64505 -45.28327,5.19668 -45.208393,18.47676"
         id="path7656"
         sodipodi:nodetypes="cc" />
      <path
         style="fill:none;stroke:#000000;stroke-width:0.5;stroke-linecap:butt;stroke-linejoin:miter;stroke-opacity:1;stroke-miterlimit:4;stroke-dasharray:none"
         d="m 94.936127,134.50014 c 0.262298,17.01046 -45.085718,7.99734 -45.208394,18.27535"
         id="path7658"
         sodipodi:nodetypes="cc" />
    </g>
    <g
       id="g4704"
       inkscape:export-filename="C:\Users\klooster\OneDrive - imec\Desktop\streaminfograph.png"
       inkscape:export-xdpi="300.07941"
       inkscape:export-ydpi="300.07941">
      <rect
         style="fill:#f2f2f2;fill-opacity:1;stroke:#000000;stroke-width:0.114645;stroke-linecap:round"
         id="rect846"
         width="31.178577"
         height="13.518091"
         x="28.846773"
         y="34.9235" />
      <rect
         style="fill:#000000;fill-opacity:1;stroke:#000000;stroke-width:0.15;stroke-linecap:round"
         id="rect848-4"
         width="11.547904"
         height="2.8198371"
         x="38.662109"
         y="48.441593" />
      <rect
         style="fill:#f2f2f2;fill-opacity:1;stroke:#000000;stroke-width:0.114645;stroke-linecap:round"
         id="rect846-4"
         width="31.178577"
         height="13.518091"
         x="28.846773"
         y="74.773384" />
      <rect
         style="fill:#000000;fill-opacity:1;stroke:#000000;stroke-width:0.15;stroke-linecap:round"
         id="rect848-0"
         width="11.547904"
         height="2.8198371"
         x="28.882128"
         y="88.291473" />
      <rect
         style="fill:#000000;fill-opacity:1;stroke:#000000;stroke-width:0.15;stroke-linecap:round"
         id="rect848-4-8"
         width="11.547904"
         height="2.8198371"
         x="48.477448"
         y="88.291473" />
      <rect
         style="fill:#000000;fill-opacity:1;stroke:#000000;stroke-width:0.15;stroke-linecap:round"
         id="rect848-5-6"
         width="11.547904"
         height="2.8198371"
         x="38.662109"
         y="71.971222" />
      <rect
         style="fill:#f2f2f2;fill-opacity:1;stroke:#000000;stroke-width:0.114645;stroke-linecap:round"
         id="rect846-4-3"
         width="31.178577"
         height="13.518091"
         x="76.700996"
         y="74.773384" />
      <rect
         style="fill:#000000;fill-opacity:1;stroke:#000000;stroke-width:0.15;stroke-linecap:round"
         id="rect848-0-8"
         width="11.547904"
         height="2.8198371"
         x="76.736351"
         y="88.291473" />
      <rect
         style="fill:#000000;fill-opacity:1;stroke:#000000;stroke-width:0.15;stroke-linecap:round"
         id="rect848-4-8-7"
         width="11.547904"
         height="2.8198371"
         x="96.331665"
         y="88.291473" />
      <rect
         style="fill:#000000;fill-opacity:1;stroke:#000000;stroke-width:0.15;stroke-linecap:round"
         id="rect848-5-6-1"
         width="11.547904"
         height="2.8198371"
         x="86.516335"
         y="71.971222" />
      <rect
         style="fill:#f2f2f2;fill-opacity:1;stroke:#000000;stroke-width:0.114645;stroke-linecap:round"
         id="rect846-4-0"
         width="31.178577"
         height="13.518091"
         x="28.846773"
         y="116.55088" />
      <rect
         style="fill:#000000;fill-opacity:1;stroke:#000000;stroke-width:0.15;stroke-linecap:round"
         id="rect848-4-8-5"
         width="11.547904"
         height="2.8198371"
         x="38.662109"
         y="130.06897" />
      <rect
         style="fill:#000000;fill-opacity:1;stroke:#000000;stroke-width:0.15;stroke-linecap:round"
         id="rect848-5-6-7"
         width="11.547904"
         height="2.8198371"
         x="38.662109"
         y="113.74872" />
      <rect
         style="fill:#f2f2f2;fill-opacity:1;stroke:#000000;stroke-width:0.114645;stroke-linecap:round"
         id="rect846-4-0-3"
         width="31.178577"
         height="13.518091"
         x="28.846773"
         y="157.189" />
      <rect
         style="fill:#000000;fill-opacity:1;stroke:#000000;stroke-width:0.18286;stroke-linecap:round"
         id="rect848-5-6-7-1"
         width="17.363997"
         height="2.7869768"
         x="35.754063"
         y="154.40326" />
      <rect
         style="fill:#f2f2f2;fill-opacity:1;stroke:#000000;stroke-width:0.114645;stroke-linecap:round"
         id="rect846-4-3-3"
         width="31.178577"
         height="13.518091"
         x="76.700996"
         y="116.55088" />
      <rect
         style="fill:#000000;fill-opacity:1;stroke:#000000;stroke-width:0.15;stroke-linecap:round"
         id="rect848-4-8-7-3"
         width="11.547904"
         height="2.8198371"
         x="86.516335"
         y="130.06897" />
      <rect
         style="fill:#000000;fill-opacity:1;stroke:#000000;stroke-width:0.15;stroke-linecap:round"
         id="rect848-5-6-1-3"
         width="11.547904"
         height="2.8198371"
         x="86.516335"
         y="113.74872" />
    </g>
    <g
       id="g9873"
       style="stroke:#e5b11a;stroke-opacity:1;stroke-width:0.5;stroke-miterlimit:4;stroke-dasharray:none"
       inkscape:export-filename="C:\Users\klooster\OneDrive - imec\Desktop\streaminfograph.png"
       inkscape:export-xdpi="300.07941"
       inkscape:export-ydpi="300.07941">
      <path
         style="fill:none;stroke:#e5b11a;stroke-width:0.5;stroke-linecap:butt;stroke-linejoin:miter;stroke-opacity:1;stroke-miterlimit:4;stroke-dasharray:none"
         d="M 41.733028,71.971222 34.656077,91.312729"
         id="path6619" />
      <path
         style="fill:none;stroke:#e5b11a;stroke-width:0.5;stroke-linecap:butt;stroke-linejoin:miter;stroke-opacity:1;stroke-miterlimit:4;stroke-dasharray:none"
         d="M 34.729774,91.11131 47.0247,71.971222 54.2514,91.111313"
         id="path6621" />
      <path
         style="fill:none;stroke:#e5b11a;stroke-width:0.5;stroke-linecap:butt;stroke-linejoin:miter;stroke-opacity:1;stroke-miterlimit:4;stroke-dasharray:none"
         d="M 41.733028,71.971222 54.251399,91.11131"
         id="path6623" />
      <path
         style="fill:none;stroke:#e5b11a;stroke-width:0.5;stroke-linecap:butt;stroke-linejoin:miter;stroke-opacity:1;stroke-miterlimit:4;stroke-dasharray:none"
         d="M 82.510298,91.312729 89.587257,71.971222 102.10561,91.111313"
         id="path6625" />
      <path
         style="fill:none;stroke:#e5b11a;stroke-width:0.5;stroke-linecap:butt;stroke-linejoin:miter;stroke-opacity:1;stroke-miterlimit:4;stroke-dasharray:none"
         d="M 82.510298,91.312729 94.878929,71.971222 102.10561,91.11131"
         id="path6627" />
      <path
         style="fill:none;stroke:#e5b11a;stroke-width:0.5;stroke-linecap:butt;stroke-linejoin:miter;stroke-opacity:1;stroke-miterlimit:4;stroke-dasharray:none"
         d="m 41.733028,113.74872 2.703033,19.14009"
         id="path7646" />
      <path
         style="fill:none;stroke:#e5b11a;stroke-width:0.5;stroke-linecap:butt;stroke-linejoin:miter;stroke-opacity:1;stroke-miterlimit:4;stroke-dasharray:none"
         d="m 47.0247,113.74872 -2.588639,19.14009"
         id="path7648"
         sodipodi:nodetypes="cc" />
      <path
         style="fill:none;stroke:#e5b11a;stroke-width:0.5;stroke-linecap:butt;stroke-linejoin:miter;stroke-opacity:1;stroke-miterlimit:4;stroke-dasharray:none"
         d="m 89.587257,113.74872 0.0572,19.14009"
         id="path7650" />
      <path
         style="fill:none;stroke:#e5b11a;stroke-width:0.5;stroke-linecap:butt;stroke-linejoin:miter;stroke-opacity:1;stroke-miterlimit:4;stroke-dasharray:none"
         d="m 94.878929,113.74872 0.0572,19.14009"
         id="path7652" />
    </g>
    <path
       style="color:#000000;fill:#1ab233;stroke-linecap:round;stroke:#ffffff;stroke-opacity:1;stroke-width:0.21148986;stroke-miterlimit:4;stroke-dasharray:none"
       d="M 16.783203,-101.33398 A 0.26436234,0.26436234 0 0 0 16.5,-101.0918 a 0.26436234,0.26436234 0 0 0 0.242187,0.28516 c 0.534922,0.0418 0.996879,0.16565 1.310547,0.32422 0.313669,0.15856 0.447495,0.33841 0.458985,0.45508 0.01149,0.116659 -0.07088,0.268609 -0.34375,0.43359 -0.272868,0.164981 -0.705137,0.305016 -1.228516,0.367188 -1.046758,0.124342 -2.174576,-0.128773 -2.589844,-0.482422 -0.103816,-0.08841 -0.153065,-0.168047 -0.171875,-0.228516 -0.01881,-0.06047 -0.01567,-0.10648 0.01367,-0.17188 0.05869,-0.13079 0.274244,-0.32791 0.673828,-0.47656 a 0.26436234,0.26436234 0 0 0 0.15625,-0.33984 0.26436234,0.26436234 0 0 0 -0.339843,-0.15625 c -0.475751,0.17697 -0.820688,0.41716 -0.972657,0.75586 -0.07598,0.16935 -0.09099,0.365427 -0.03516,0.54492 0.05583,0.179493 0.173988,0.338354 0.333985,0.474609 0.639984,0.545023 1.833432,0.743348 2.99414,0.605469 0.580354,-0.06894 1.073831,-0.220344 1.439453,-0.441406 0.365622,-0.221062 0.634056,-0.548071 0.595703,-0.937502 -0.03835,-0.38943 -0.347808,-0.67366 -0.746093,-0.875 -0.398286,-0.20134 -0.917426,-0.33275 -1.507813,-0.3789 z"
       id="path10036"
       transform="matrix(-0.8354314,0.54959473,-0.86533669,-0.501191,0,0)"
       inkscape:export-filename="C:\Users\klooster\OneDrive - imec\Desktop\streaminfograph.png"
       inkscape:export-xdpi="300.07941"
       inkscape:export-ydpi="300.07941" />
    <path
       style="fill:none;stroke:#1ab233;stroke-width:0.264583px;stroke-linecap:butt;stroke-linejoin:miter;stroke-opacity:1"
       d="M 74.968311,57.797503 89.156968,47.569373"
       id="path10975"
       sodipodi:nodetypes="cc"
       inkscape:export-filename="C:\Users\klooster\OneDrive - imec\Desktop\streaminfograph.png"
       inkscape:export-xdpi="300.07941"
       inkscape:export-ydpi="300.07941" />
    <text
       xml:space="preserve"
       style="font-size:3.52778px;line-height:1.25;font-family:sans-serif;stroke-width:0.264583"
       x="89.916565"
       y="37.440071"
       id="text15642"
       inkscape:export-filename="C:\Users\klooster\OneDrive - imec\Desktop\streaminfograph.png"
       inkscape:export-xdpi="300.07941"
       inkscape:export-ydpi="300.07941"><tspan
         sodipodi:role="line"
         id="tspan15640"
         style="font-style:normal;font-variant:normal;font-weight:normal;font-stretch:normal;font-size:3.52778px;font-family:sans-serif;-inkscape-font-specification:sans-serif;stroke-width:0.264583"
         x="89.916565"
         y="37.440071">StreamInfo with</tspan><tspan
         sodipodi:role="line"
         style="font-style:normal;font-variant:normal;font-weight:normal;font-stretch:normal;font-size:3.52778px;font-family:sans-serif;-inkscape-font-specification:sans-serif;stroke-width:0.264583"
         x="89.916565"
         y="41.849796"
         id="tspan21820">key-value store</tspan><tspan
         sodipodi:role="line"
         style="font-style:normal;font-variant:normal;font-weight:normal;font-stretch:normal;font-size:3.52778px;font-family:sans-serif;-inkscape-font-specification:sans-serif;stroke-width:0.264583"
         x="89.916565"
         y="46.259521"
         id="tspan29126">and list of parents</tspan></text>
    <rect
       style="fill:none;fill-opacity:1;stroke:#1ab233;stroke-width:0.2;stroke-linecap:round;stroke-miterlimit:4;stroke-dasharray:none;stroke-opacity:1"
       id="rect18122"
       width="33.535892"
       height="13.997968"
       x="89.156975"
       y="33.571411"
       inkscape:export-filename="C:\Users\klooster\OneDrive - imec\Desktop\streaminfograph.png"
       inkscape:export-xdpi="300.07941"
       inkscape:export-ydpi="300.07941" />
    <path
       style="fill:none;stroke:#8f8fef;stroke-width:0.3;stroke-linecap:butt;stroke-linejoin:miter;stroke-opacity:1;stroke-miterlimit:4;stroke-dasharray:none;marker-end:url(#TriangleOutL)"
       d="m 55.322514,152.67403 c 0,0 31.659114,-3.31589 36.120768,-5.77395 4.461654,-2.45806 6.024461,-4.08902 6.982455,-8.45951 0.957994,-4.37049 -0.439293,-13.55817 -0.268557,-18.53036 0.170736,-4.97219 -0.170931,-6.5588 0.939945,-11.27935 1.110875,-4.72055 5.942845,-12.892119 6.579625,-16.516187 0.63678,-3.624068 0.6223,-0.474675 -0.13428,-4.296894 -0.75658,-3.822219 -4.89519,-13.094305 -6.7139,-17.858967 -1.818713,-4.764662 -3.344653,-7.525471 -4.162615,-10.742237 -0.817962,-3.216766 -1.074224,-8.325234 -1.074224,-8.325234"
       id="path28029"
       sodipodi:nodetypes="czzzzzzzzc"
       inkscape:export-filename="C:\Users\klooster\OneDrive - imec\Desktop\streaminfograph.png"
       inkscape:export-xdpi="300.07941"
       inkscape:export-ydpi="300.07941" />
    <path
       style="fill:none;stroke:#8f8fef;stroke-width:0.3;stroke-linecap:butt;stroke-linejoin:miter;stroke-opacity:0.73725492;stroke-miterlimit:4;stroke-dasharray:none;marker-end:url(#TriangleOutL)"
       d="m 102.58835,99.768516 c 0,0 -2.706201,-7.744254 -5.639671,-12.353572 C 94.015209,82.805625 88.657572,76.038362 84.595106,73.047203 80.53264,70.056044 78.585856,69.211525 74.121427,67.944642 69.656998,66.677759 58.008075,66.333306 58.008075,66.333306"
       id="path29505"
       sodipodi:nodetypes="czzzc"
       inkscape:export-filename="C:\Users\klooster\OneDrive - imec\Desktop\streaminfograph.png"
       inkscape:export-xdpi="300.07941"
       inkscape:export-ydpi="300.07941" />
    <text
       xml:space="preserve"
       style="font-size:3.52778px;line-height:1.25;font-family:sans-serif;fill:#8f8fef;fill-opacity:1;stroke-width:0.264583"
       x="98.022903"
       y="59.350853"
       id="text33605"
       inkscape:export-filename="C:\Users\klooster\OneDrive - imec\Desktop\streaminfograph.png"
       inkscape:export-xdpi="300.07941"
       inkscape:export-ydpi="300.07941"><tspan
         sodipodi:role="line"
         id="tspan33603"
         style="font-style:italic;font-variant:normal;font-weight:normal;font-stretch:normal;font-size:3.52778px;font-family:sans-serif;-inkscape-font-specification:'sans-serif Italic';fill:#8f8fef;fill-opacity:1;stroke-width:0.264583"
         x="98.022903"
         y="59.350853">query stream</tspan><tspan
         sodipodi:role="line"
         style="font-style:italic;font-variant:normal;font-weight:normal;font-stretch:normal;font-size:3.52778px;font-family:sans-serif;-inkscape-font-specification:'sans-serif Italic';fill:#8f8fef;fill-opacity:1;stroke-width:0.264583"
         x="98.022903"
         y="63.760578"
         id="tspan36243">information graph</tspan></text>
  </g>
</svg>
